{
  "response": {
    "status": "ok",
    "userTier": "developer",
    "total": 159166,
    "startIndex": 1,
    "pageSize": 10,
    "currentPage": 1,
    "pages": 15917,
    "orderBy": "newest",
    "results": [
      {
        "id": "world/live/2021/apr/18/coronavirus-live-news-israel-ends-outdoor-mask-wearing-uk-cabinet-minister-defends-hancock-over-nhs-contracts",
        "type": "liveblog",
        "sectionId": "world",
        "sectionName": "World news",
        "webPublicationDate": "2021-04-18T16:52:48Z",
        "webTitle": "Coronavirus live news: Gaza sees record death toll; calls for Boris Johnson to cancel India trip over new variant",
        "webUrl": "https://www.theguardian.com/world/live/2021/apr/18/coronavirus-live-news-israel-ends-outdoor-mask-wearing-uk-cabinet-minister-defends-hancock-over-nhs-contracts",
        "apiUrl": "https://content.guardianapis.com/world/live/2021/apr/18/coronavirus-live-news-israel-ends-outdoor-mask-wearing-uk-cabinet-minister-defends-hancock-over-nhs-contracts",
        "fields": {
          "thumbnail": "https://media.guim.co.uk/c478affea1df8dc688d5a880a79acd5c2b69a597/375_745_3841_2305/500.jpg"
        },
        "isHosted": false,
        "pillarId": "pillar/news",
        "pillarName": "News"
      },
      {
        "id": "politics/2021/apr/18/lobbying-act-targeted-powerful-shadowy-groups-not-charities",
        "type": "article",
        "sectionId": "politics",
        "sectionName": "Politics",
        "webPublicationDate": "2021-04-18T16:50:07Z",
        "webTitle": "Lobbying act targeted powerful shadowy groups, not charities | Letter",
        "webUrl": "https://www.theguardian.com/politics/2021/apr/18/lobbying-act-targeted-powerful-shadowy-groups-not-charities",
        "apiUrl": "https://content.guardianapis.com/politics/2021/apr/18/lobbying-act-targeted-powerful-shadowy-groups-not-charities",
        "fields": {
          "thumbnail": "https://media.guim.co.uk/c25f46e35389ba6451dee76fc5e438045c6441f7/226_0_2855_1713/500.jpg"
        },
        "isHosted": false,
        "pillarId": "pillar/news",
        "pillarName": "News"
      },
      {
        "id": "world/2021/apr/18/germanys-surging-greens-step-up-election-race-to-succeed-merkel",
        "type": "article",
        "sectionId": "world",
        "sectionName": "World news",
        "webPublicationDate": "2021-04-18T13:47:03Z",
        "webTitle": "Germany’s surging Greens step up election race to succeed Merkel ",
        "webUrl": "https://www.theguardian.com/world/2021/apr/18/germanys-surging-greens-step-up-election-race-to-succeed-merkel",
        "apiUrl": "https://content.guardianapis.com/world/2021/apr/18/germanys-surging-greens-step-up-election-race-to-succeed-merkel",
        "fields": {
          "thumbnail": "https://media.guim.co.uk/0cd7245ccae8c49faccae8c01d7afb59f453448e/0_176_3500_2100/500.jpg"
        },
        "isHosted": false,
        "pillarId": "pillar/news",
        "pillarName": "News"
      },
      {
        "id": "commentisfree/2021/apr/18/denial-delusion-thatcher-years-nostalgia-royal-modern-britain",
        "type": "article",
        "sectionId": "commentisfree",
        "sectionName": "Opinion",
        "webPublicationDate": "2021-04-18T13:22:12Z",
        "webTitle": "Let’s not go back to the denial and delusion of the Thatcher years | John Harris",
        "webUrl": "https://www.theguardian.com/commentisfree/2021/apr/18/denial-delusion-thatcher-years-nostalgia-royal-modern-britain",
        "apiUrl": "https://content.guardianapis.com/commentisfree/2021/apr/18/denial-delusion-thatcher-years-nostalgia-royal-modern-britain",
        "fields": {
          "thumbnail": "https://media.guim.co.uk/dd89eccee5006bb42bfd4b84ffb06d3501fa713b/0_166_2016_1210/500.jpg"
        },
        "isHosted": false,
        "pillarId": "pillar/opinion",
        "pillarName": "Opinion"
      },
      {
        "id": "world/2021/apr/18/keiko-fujimori-would-be-lesser-of-two-evils-as-peru-president-says-nobel-prize-author-mario-vargas-llosa",
        "type": "article",
        "sectionId": "world",
        "sectionName": "World news",
        "webPublicationDate": "2021-04-18T12:15:40Z",
        "webTitle": "Keiko Fujimori would be ‘lesser of two evils’ as Peru president, says Nobel prize author",
        "webUrl": "https://www.theguardian.com/world/2021/apr/18/keiko-fujimori-would-be-lesser-of-two-evils-as-peru-president-says-nobel-prize-author-mario-vargas-llosa",
        "apiUrl": "https://content.guardianapis.com/world/2021/apr/18/keiko-fujimori-would-be-lesser-of-two-evils-as-peru-president-says-nobel-prize-author-mario-vargas-llosa",
        "fields": {
          "thumbnail": "https://media.guim.co.uk/eb8504764d58b5e519796fbe41ca6d547afc31aa/0_0_4512_2707/500.jpg"
        },
        "isHosted": false,
        "pillarId": "pillar/news",
        "pillarName": "News"
      },
      {
        "id": "film/2021/apr/18/daniel-kaluuya-the-camden-town-kid-at-the-top-of-the-a-list",
        "type": "article",
        "sectionId": "film",
        "sectionName": "Film",
        "webPublicationDate": "2021-04-18T09:30:04Z",
        "webTitle": "Daniel Kaluuya: the Camden Town kid at the top of the A-list - MOCKED",
        "webUrl": "https://www.theguardian.com/film/2021/apr/18/daniel-kaluuya-the-camden-town-kid-at-the-top-of-the-a-list",
        "apiUrl": "https://content.guardianapis.com/film/2021/apr/18/daniel-kaluuya-the-camden-town-kid-at-the-top-of-the-a-list",
        "fields": {
          "thumbnail": "https://media.guim.co.uk/791c5327a7a1ce8652cbfa1c3a5ea44dc5e27728/0_0_1700_1020/500.jpg"
        },
        "isHosted": false,
        "pillarId": "pillar/arts",
        "pillarName": "Arts"
      },
      {
        "id": "commentisfree/2021/apr/18/dominic-cummings-the-last-thing-the-troubled-civil-service-needs-is-your-advice",
        "type": "article",
        "sectionId": "commentisfree",
        "sectionName": "Opinion",
        "webPublicationDate": "2021-04-18T09:00:04Z",
        "webTitle": "Dominic Cummings, the last thing the civil service needs is your advice | Nick Cohen",
        "webUrl": "https: //www.theguardian.com/commentisfree/2021/apr/18/dominic-cummings-the-last-thing-the-troubled-civil-service-needs-is-your-advice",
        "apiUrl": "https://content.guardianapis.com/commentisfree/2021/apr/18/dominic-cummings-the-last-thing-the-troubled-civil-service-needs-is-your-advice",
        "fields": {
          "thumbnail": "https://media.guim.co.uk/0629868bb76f9ee6f35c80107b78cf7ec143e010/0_128_5837_3504/500.jpg"
        },
        "isHosted": false,
        "pillarId": "pillar/opinion",
        "pillarName": "Opinion"
      },
      {
        "id": "books/2021/apr/18/in-the-thick-of-it-by-alan-duncan-review-too-much-bile-not-enough-style",
        "type": "article",
        "sectionId": "books",
        "sectionName": "Books",
        "webPublicationDate": "2021-04-18T08:00:03Z",
        "webTitle": "In the Thick of It by Alan Duncan review – too much bile, not enough style",
        "webUrl": "https: //www.theguardian.com/books/2021/apr/18/in-the-thick-of-it-by-alan-duncan-review-too-much-bile-not-enough-style",
        "apiUrl": "https://content.guardianapis.com/books/2021/apr/18/in-the-thick-of-it-by-alan-duncan-review-too-much-bile-not-enough-style",
        "fields": {
          "thumbnail": "https://media.guim.co.uk/050687854d91209a055668f0a7b004d1d7ff943c/0_0_3000_1800/500.jpg"
        },
        "isHosted": false,
        "pillarId": "pillar/arts",
        "pillarName": "Arts"
      },
      {
        "id": "commentisfree/2021/apr/18/by-demonising-asylum-seekers-denmark-reflects-a-panic-in-social-democracy",
        "type": "article",
        "sectionId": "commentisfree",
        "sectionName": "Opinion",
        "webPublicationDate": "2021-04-18T07:30:02Z",
        "webTitle": "By demonising asylum seekers, Denmark reflects a panic in social democracy  | Kenan Malik",
        "webUrl": "https://www.theguardian.com/commentisfree/2021/apr/18/by-demonising-asylum-seekers-denmark-reflects-a-panic-in-social-democracy",
        "apiUrl": "https://content.guardianapis.com/commentisfree/2021/apr/18/by-demonising-asylum-seekers-denmark-reflects-a-panic-in-social-democracy",
        "fields": {
          "thumbnail": "https://media.guim.co.uk/8bf1e4f1515831bb526c5c49a17c3d7ab81f67f5/0_0_5616_3370/500.jpg"
        },
        "isHosted": false,
        "pillarId": "pillar/opinion",
        "pillarName": "Opinion"
      },
      {
        "id": "commentisfree/2021/apr/18/david-cameron-greensill-scandal-tip-of-fatberg",
        "type": "article",
        "sectionId": "commentisfree",
        "sectionName": "Opinion",
        "webPublicationDate": "2021-04-18T07:00:02Z",
        "webTitle": "David Cameron and the Greensill scandal is just the tip of the fatberg | Andrew Rawnsley",
        "webUrl": "https://www.theguardian.com/commentisfree/2021/apr/18/david-cameron-greensill-scandal-tip-of-fatberg",
        "apiUrl": "https://content.guardianapis.com/commentisfree/2021/apr/18/david-cameron-greensill-scandal-tip-of-fatberg",
        "fields": {
          "thumbnail": "https://media.guim.co.uk/5174805606d6c2cc6f58e27a6af9c165cf8aa2f9/0_77_4843_2906/500.jpg"
        },
        "isHosted": false,
        "pillarId": "pillar/opinion",
        "pillarName": "Opinion"
      }
    ]
  }
}